{
	"count": 220,
	"next": "http://api.everyblock.com/content/philly/locations/belmont/timeline/.json?token=818111003c3b49716d369cf290958441685e34c9&page=2",
	"previous": null,
	"results": [{
		"id": 2219331,
		"title": "hello",
		"embed": null,
		"pub_date": "2016-01-23T01:26:01.537Z",
		"item_date": "2016-01-22",
		"location_name": "Belmont",
		"location_coordinates": [{
			"latitude": 39.966856290776775,
			"longitude": -75.19737904884872
		}],
		"attributes": {
			"comment": "i like dogs and cats",
			"email_followups": true,
			"contact_link": true,
			"source_name": "everyblock.com",
			"source": 1661,
			"old_status": null,
			"email_sent": false
		},
		"url": "http://philly.everyblock.com/pets/jan23-hello-2219331/",
		"poster_name": "Selynna Sun",
		"schema": "pets",
		"reaction_score": 0,
		"reaction_count": 0,
		"comment_count": 0
	}, {
		"id": 2218538,
		"title": "Free Marketing Consultation!",
		"embed": null,
		"pub_date": "2016-01-21T14:50:45.927Z",
		"item_date": "2016-01-21",
		"location_name": "Wynnefield",
		"location_coordinates": [{
			"latitude": 39.99223165636351,
			"longitude": -75.21589832951125
		}],
		"attributes": {
			"comment": "Looking for new ways and ideas to bring in money for the New Year? Call American \u200eAdvertising\u202c Services at 484-562-0060 to set up your \u202a\u200efree\u202c consultation!",
			"email_followups": true,
			"contact_link": true,
			"source_name": "everyblock.com",
			"source": 1670,
			"old_status": null,
			"email_sent": false
		},
		"url": "http://philly.everyblock.com/local-business/jan21-free-marketing-consultation-2218538/",
		"poster_name": "Joe Ball",
		"schema": "local-business",
		"reaction_score": 0,
		"reaction_count": 0,
		"comment_count": 0
	}, {
		"id": 2219297,
		"title": "Safe Haven Security Services Inc reviewed by Ken E.",
		"embed": null,
		"pub_date": "2016-01-23T11:00:00Z",
		"item_date": "2016-01-22",
		"location_name": "Safe Haven Security Services Inc, Philadelphia",
		"location_coordinates": [{
			"latitude": 39.96244,
			"longitude": -75.19993
		}],
		"attributes": {
			"username": "Ken E.",
			"source_name": "Yelp",
			"review_id": "jO-UyBGv0ZXvHr6OWvg4ow",
			"excerpt": "Safe haven Adt cares immensely about their customers. They often make return trips to homes and families to ensure their well being and the sense of safety that Adt provides.\n\nSome reps like to keep\u2026",
			"source": 1220,
			"stars": 5,
			"business_name": "Safe Haven Security Services Inc",
			"review_url": "http://www.yelp.com/biz/safe-haven-security-services-inc-philadelphia-2?hrid=jO-UyBGv0ZXvHr6OWvg4ow"
		},
		"url": "http://philly.everyblock.com/business-reviews/jan22-safe-haven-security-services-inc-reviewed-ken-e-2219297/",
		"poster_name": "",
		"schema": "business-reviews",
		"reaction_score": 0,
		"reaction_count": 0,
		"comment_count": 0
	}, {
		"id": 2218783,
		"title": "Dornsife center connects campus to community",
		"embed": {
			"provider_url": "http://thetriangle.org",
			"description": "A short way from the intersection of 35th and Spring Garden streets sits a large white mansion surrounded by a brick schoolhouse, a meeting hall and a large lawn. At night, a single lantern can be seen hanging between the house's two pillars and warm yellow light spills from its bay windows, welcoming visitors.",
			"title": "Dornsife center connects campus to community - The Triangle",
			"url": "http://thetriangle.org/news/33056/",
			"thumbnail_width": 1000,
			"thumbnail_url": "http://thetriangle.org/wp-content/uploads/2016/01/Web_Dorn_Drexel_0.jpg",
			"author_name": "Eunice Maya Kamami",
			"version": "1.0",
			"provider_name": "The Triangle",
			"type": "link",
			"thumbnail_height": 667,
			"author_url": "http://thetriangle.org/author/maya-kamami/"
		},
		"pub_date": "2016-01-22T05:27:44.320Z",
		"item_date": "2016-01-22",
		"location_name": "Multiple locations",
		"location_coordinates": [{
			"latitude": 39.96276993369934,
			"longitude": -75.19285003668855
		}, {
			"latitude": 39.96275916760043,
			"longitude": -75.1929684637766
		}],
		"attributes": {
			"source": 2057,
			"source_name": "The Triangle",
			"master_newsitem_id": null,
			"page_id": 921610,
			"source_id": 3,
			"excerpt": "",
			"has_multiple_locations": true
		},
		"url": "http://philly.everyblock.com/news-articles/jan22-dornsife-center-connects-campus-community-2218783/",
		"poster_name": "",
		"schema": "news-articles",
		"reaction_score": 0,
		"reaction_count": 0,
		"comment_count": 0
	}, {
		"id": 2218908,
		"title": "Burglary Residential",
		"embed": null,
		"pub_date": "2016-01-22T06:44:39.819Z",
		"item_date": "2016-01-19",
		"location_name": "4100 Block W. Girard Av 3",
		"location_coordinates": [{
			"latitude": 39.97360143,
			"longitude": -75.20870188
		}],
		"attributes": {
			"sector": 202,
			"xy": "",
			"primary_type": 1691,
			"premise": 1687,
			"dc_key": "201616003085",
			"secondary_type": 1686,
			"dispatch_time": "10:38:00"
		},
		"url": "http://philly.everyblock.com/crime/jan19-burglary-residential-2218908/",
		"poster_name": "",
		"schema": "crime",
		"reaction_score": 0,
		"reaction_count": 0,
		"comment_count": 0
	}, {
		"id": 2218905,
		"title": "Robbery Firearm",
		"embed": null,
		"pub_date": "2016-01-22T06:44:39.819Z",
		"item_date": "2016-01-19",
		"location_name": "1200 Block N. 41st St.",
		"location_coordinates": [{
			"latitude": 39.97389729,
			"longitude": -75.20649333
		}],
		"attributes": {
			"sector": 202,
			"xy": "",
			"primary_type": 1688,
			"premise": 1687,
			"dc_key": "201616003032",
			"secondary_type": 1686,
			"dispatch_time": "08:04:00"
		},
		"url": "http://philly.everyblock.com/crime/jan19-robbery-firearm-2218905/",
		"poster_name": "",
		"schema": "crime",
		"reaction_score": 0,
		"reaction_count": 0,
		"comment_count": 0
	}, {
		"id": 2218904,
		"title": "Robbery No Firearm",
		"embed": null,
		"pub_date": "2016-01-22T06:44:39.819Z",
		"item_date": "2016-01-18",
		"location_name": "800 Block Palm St.",
		"location_coordinates": [{
			"latitude": 39.96872263,
			"longitude": -75.20631743
		}],
		"attributes": {
			"sector": 202,
			"xy": "",
			"primary_type": 1688,
			"premise": 1687,
			"dc_key": "201616002848",
			"secondary_type": 1686,
			"dispatch_time": "09:23:00"
		},
		"url": "http://philly.everyblock.com/crime/jan18-robbery-no-firearm-2218904/",
		"poster_name": "",
		"schema": "crime",
		"reaction_score": 0,
		"reaction_count": 0,
		"comment_count": 0
	}, {
		"id": 2218909,
		"title": "Burglary Non-Residential",
		"embed": null,
		"pub_date": "2016-01-22T06:44:39.819Z",
		"item_date": "2016-01-19",
		"location_name": "4000 Block Lancaster Av",
		"location_coordinates": [{
			"latitude": 39.96423802,
			"longitude": -75.20418073
		}],
		"attributes": {
			"sector": 202,
			"xy": "",
			"primary_type": 1691,
			"premise": 1687,
			"dc_key": "201616003090",
			"secondary_type": 1686,
			"dispatch_time": "12:36:00"
		},
		"url": "http://philly.everyblock.com/crime/jan19-burglary-non-residential-2218909/",
		"poster_name": "",
		"schema": "crime",
		"reaction_score": 0,
		"reaction_count": 0,
		"comment_count": 0
	}, {
		"id": 2218906,
		"title": "Thefts",
		"embed": null,
		"pub_date": "2016-01-22T06:44:39.819Z",
		"item_date": "2016-01-19",
		"location_name": "500 Block N. 39th St.",
		"location_coordinates": [{
			"latitude": 39.96206255,
			"longitude": -75.19949617
		}],
		"attributes": {
			"sector": 145,
			"xy": "",
			"primary_type": 1685,
			"premise": 1687,
			"dc_key": "201616003071",
			"secondary_type": 1686,
			"dispatch_time": "11:19:00"
		},
		"url": "http://philly.everyblock.com/crime/jan19-thefts-2218906/",
		"poster_name": "",
		"schema": "crime",
		"reaction_score": 0,
		"reaction_count": 0,
		"comment_count": 0
	}, {
		"id": 2218907,
		"title": "Robbery Firearm",
		"embed": null,
		"pub_date": "2016-01-22T06:44:39.819Z",
		"item_date": "2016-01-19",
		"location_name": "3400 Block Haverford Av",
		"location_coordinates": [{
			"latitude": 39.96400711,
			"longitude": -75.19164292
		}],
		"attributes": {
			"sector": 145,
			"xy": "",
			"primary_type": 1688,
			"premise": 1687,
			"dc_key": "201616003080",
			"secondary_type": 1686,
			"dispatch_time": "11:45:00"
		},
		"url": "http://philly.everyblock.com/crime/jan19-robbery-firearm-2218907/",
		"poster_name": "",
		"schema": "crime",
		"reaction_score": 0,
		"reaction_count": 0,
		"comment_count": 0
	}, {
		"id": 2218910,
		"title": "Theft from Vehicle",
		"embed": null,
		"pub_date": "2016-01-22T06:44:39.819Z",
		"item_date": "2016-01-19",
		"location_name": "600 Block N. 43rd St.",
		"location_coordinates": [{
			"latitude": 39.963611470000004,
			"longitude": -75.20916628
		}],
		"attributes": {
			"sector": 202,
			"xy": "",
			"primary_type": 1685,
			"premise": 1687,
			"dc_key": "201616003118",
			"secondary_type": 1686,
			"dispatch_time": "16:42:00"
		},
		"url": "http://philly.everyblock.com/crime/jan19-theft-vehicle-2218910/",
		"poster_name": "",
		"schema": "crime",
		"reaction_score": 0,
		"reaction_count": 0,
		"comment_count": 0
	}, {
		"id": 2218530,
		"title": "Texas Wiener reviewed by Sooin K.",
		"embed": null,
		"pub_date": "2016-01-21T23:00:00Z",
		"item_date": "2016-01-21",
		"location_name": "Texas Wiener, Philadelphia",
		"location_coordinates": [{
			"latitude": 39.9631264,
			"longitude": -75.202103
		}],
		"attributes": {
			"username": "Sooin K.",
			"source_name": "Yelp",
			"review_id": "7HQJn5Mg-Lx1WcVvLWWrFA",
			"excerpt": "Good food, reasonable price, kind people.. \nWas perfect for lazy morning drop-by with pajama pants on as our bnb was close by... Absolutely recommended. Pancakes and home fries are the best, but\u2026",
			"source": 1220,
			"stars": 5,
			"business_name": "Texas Wiener",
			"review_url": "http://www.yelp.com/biz/texas-wiener-philadelphia-2?hrid=7HQJn5Mg-Lx1WcVvLWWrFA"
		},
		"url": "http://philly.everyblock.com/business-reviews/jan21-texas-wiener-reviewed-sooin-k-2218530/",
		"poster_name": "",
		"schema": "business-reviews",
		"reaction_score": 0,
		"reaction_count": 0,
		"comment_count": 0
	}, {
		"id": 2218029,
		"title": "Bridgewater's Pub reviewed by Paul B.",
		"embed": null,
		"pub_date": "2016-01-21T11:00:00Z",
		"item_date": "2016-01-20",
		"location_name": "Bridgewater's Pub, Philadelphia",
		"location_coordinates": [{
			"latitude": 39.9551064159,
			"longitude": -75.182940541
		}],
		"attributes": {
			"username": "Paul B.",
			"source_name": "Yelp",
			"review_id": "Ybx9m9D3lPiCeOqqmrf2Ig",
			"excerpt": "Food is good.  Bartenders are laid back but cool.  Can get crowded but it's a train station so deal with it.",
			"source": 1220,
			"stars": 4,
			"business_name": "Bridgewater's Pub",
			"review_url": "http://www.yelp.com/biz/bridgewaters-pub-philadelphia?hrid=Ybx9m9D3lPiCeOqqmrf2Ig"
		},
		"url": "http://philly.everyblock.com/business-reviews/jan20-bridgewaters-pub-reviewed-paul-b-2218029/",
		"poster_name": "",
		"schema": "business-reviews",
		"reaction_score": 0,
		"reaction_count": 0,
		"comment_count": 0
	}, {
		"id": 2218220,
		"title": "Robbery No Firearm",
		"embed": null,
		"pub_date": "2016-01-21T06:33:06.815Z",
		"item_date": "2016-01-18",
		"location_name": "3300 Block Haverford Av",
		"location_coordinates": [{
			"latitude": 39.96417859,
			"longitude": -75.19020258
		}],
		"attributes": {
			"sector": 145,
			"xy": "",
			"primary_type": 1688,
			"premise": 1687,
			"dc_key": "201616002837",
			"secondary_type": 1686,
			"dispatch_time": "07:30:00"
		},
		"url": "http://philly.everyblock.com/crime/jan18-robbery-no-firearm-2218220/",
		"poster_name": "",
		"schema": "crime",
		"reaction_score": 0,
		"reaction_count": 0,
		"comment_count": 0
	}, {
		"id": 2218221,
		"title": "Recovered Stolen Motor Vehicle",
		"embed": null,
		"pub_date": "2016-01-21T06:33:06.815Z",
		"item_date": "2016-01-18",
		"location_name": "3800 Block Haverford Av",
		"location_coordinates": [{
			"latitude": 39.96324102,
			"longitude": -75.19944507
		}],
		"attributes": {
			"sector": 145,
			"xy": "",
			"primary_type": 1689,
			"premise": 1687,
			"dc_key": "201616002852",
			"secondary_type": 1686,
			"dispatch_time": "10:41:00"
		},
		"url": "http://philly.everyblock.com/crime/jan18-recovered-stolen-motor-vehicle-2218221/",
		"poster_name": "",
		"schema": "crime",
		"reaction_score": 0,
		"reaction_count": 0,
		"comment_count": 0
	}, {
		"id": 2218219,
		"title": "Recovered Stolen Motor Vehicle",
		"embed": null,
		"pub_date": "2016-01-21T06:33:06.815Z",
		"item_date": "2016-01-18",
		"location_name": "N. 31st St. & Haverford Av",
		"location_coordinates": [{
			"latitude": 39.96449621,
			"longitude": -75.18765819
		}],
		"attributes": {
			"sector": 145,
			"xy": "",
			"primary_type": 1689,
			"premise": 1687,
			"dc_key": "201616002807",
			"secondary_type": 1686,
			"dispatch_time": "02:25:00"
		},
		"url": "http://philly.everyblock.com/crime/jan18-recovered-stolen-motor-vehicle-2218219/",
		"poster_name": "",
		"schema": "crime",
		"reaction_score": 0,
		"reaction_count": 0,
		"comment_count": 0
	}, {
		"id": 2217912,
		"title": "You're invited! Tomorrow, 1/21, 7pm at Mighty...",
		"embed": {
			"provider_url": "http://www.facebook.com",
			"description": "You're invited! Tomorrow, 1/21, 7pm at Mighty Writers West (39th & Lancaster), author and \"Wake Up with WURD\" morning radio personality SOLOMON JONES...",
			"title": "Mighty Writers - Timeline Photos | Facebook",
			"url": "https://scontent.xx.fbcdn.net/hphotos-xpf1/v/t1.0-9/12509597_10154677259534657_1058841097266665508_n.jpg?oh=bfc4632f3b473afa26eaad4f823fce9f&oe=5737A179",
			"thumbnail_width": 600,
			"height": 350,
			"width": 600,
			"thumbnail_url": "https://scontent.xx.fbcdn.net/hphotos-xpf1/v/t1.0-9/12509597_10154677259534657_1058841097266665508_n.jpg?oh=bfc4632f3b473afa26eaad4f823fce9f&oe=5737A179",
			"version": "1.0",
			"provider_name": "Facebook",
			"type": "photo",
			"thumbnail_height": 350
		},
		"pub_date": "2016-01-20T18:09:18Z",
		"item_date": "2016-01-20",
		"location_name": "39th & Lancaster",
		"location_coordinates": [{
			"latitude": 39.961950014669966,
			"longitude": -75.20013995780238
		}],
		"attributes": {
			"source": 1985,
			"source_name": "Mighty Writers",
			"master_newsitem_id": null,
			"page_id": null,
			"source_id": 390,
			"excerpt": "",
			"has_multiple_locations": false
		},
		"url": "http://philly.everyblock.com/news-articles/jan20-you-re-invited-tomorrow-1-21-7pm-mighty-2217912/",
		"poster_name": "",
		"schema": "news-articles",
		"reaction_score": 0,
		"reaction_count": 0,
		"comment_count": 0
	}, {
		"id": 2217911,
		"title": "Belmont Parent2Parent Chat & Chew at 4030 Bro...",
		"embed": {
			"provider_url": "http://www.facebook.com",
			"description": "Belmont Parent2Parent Chat & Chew at 4030 Brown on Jan 28th! More info below! #community #westphilly",
			"title": "Timeline Photos - Lancaster Avenue - West Philadelphia, PA | Facebook",
			"url": "https://scontent.xx.fbcdn.net/hphotos-xfp1/v/t1.0-9/12507551_10153332685948316_2936344416968268491_n.jpg?oh=5c0ec3f0c280ee0a6e3d68ab78ad902e&oe=5745840B",
			"thumbnail_width": 682,
			"height": 373,
			"width": 682,
			"thumbnail_url": "https://scontent.xx.fbcdn.net/hphotos-xfp1/v/t1.0-9/12507551_10153332685948316_2936344416968268491_n.jpg?oh=5c0ec3f0c280ee0a6e3d68ab78ad902e&oe=5745840B",
			"version": "1.0",
			"provider_name": "Facebook",
			"type": "photo",
			"thumbnail_height": 373
		},
		"pub_date": "2016-01-20T18:03:50Z",
		"item_date": "2016-01-20",
		"location_name": "4030 Brown",
		"location_coordinates": [{
			"latitude": 39.96727204732815,
			"longitude": -75.20436978064947
		}],
		"attributes": {
			"source": 2214,
			"source_name": "Lancaster Avenue - West Philadelphia, PA",
			"master_newsitem_id": null,
			"page_id": null,
			"source_id": 624,
			"excerpt": "",
			"has_multiple_locations": false
		},
		"url": "http://philly.everyblock.com/news-articles/jan20-belmont-parent2parent-chat-chew-4030-bro-2217911/",
		"poster_name": "",
		"schema": "news-articles",
		"reaction_score": 0,
		"reaction_count": 0,
		"comment_count": 0
	}, {
		"id": 2217986,
		"title": "Commercial Museum",
		"embed": {
			"provider_url": "http://philadelphiaencyclopedia.org",
			"description": "Opened to the public in 1897, the Commercial Museum was the foremost source of international trade knowledge for American manufacturers at the turn of the twentieth century. Located on the western bank of the Schuylkill River in Philadelphia, the museum served as a reference library for merchants, facilitated connections between American export traders and foreign markets, and housed exhibits featuring hundreds of thousands of raw materials and goods from around the world.",
			"title": "Encyclopedia of Greater Philadelphia",
			"url": "http://philadelphiaencyclopedia.org/archive/commercial-museum/",
			"thumbnail_width": 300,
			"thumbnail_url": "http://philadelphiaencyclopedia.org/wp-content/uploads/2015/12/Philadelphia-Commercial-Museum-1910-e1450630262873-300x227.jpg",
			"version": "1.0",
			"provider_name": "Philadelphiaencyclopedia",
			"type": "link",
			"thumbnail_height": 227
		},
		"pub_date": "2016-01-20T20:31:02.573Z",
		"item_date": "2016-01-20",
		"location_name": "Multiple locations",
		"location_coordinates": [{
			"latitude": 39.955119984037374,
			"longitude": -75.1856199951925
		}, {
			"latitude": 39.9814031087226,
			"longitude": -75.1548416209916
		}, {
			"latitude": 39.95013949232879,
			"longitude": -75.19147608955986
		}, {
			"latitude": 39.95288998447943,
			"longitude": -75.15155994302177
		}],
		"attributes": {
			"source": 1774,
			"source_name": "The Encyclopedia of Greater Philadelphia",
			"master_newsitem_id": null,
			"page_id": 920738,
			"source_id": 160,
			"excerpt": "",
			"has_multiple_locations": true
		},
		"url": "http://philly.everyblock.com/news-articles/jan20-commercial-museum-2217986/",
		"poster_name": "",
		"schema": "news-articles",
		"reaction_score": 0,
		"reaction_count": 0,
		"comment_count": 0
	}, {
		"id": 2217398,
		"title": "Sunshine Food Market 3 reviewed by Tyron J.",
		"embed": null,
		"pub_date": "2016-01-20T11:00:00Z",
		"item_date": "2016-01-19",
		"location_name": "Sunshine Food Market 3, Philadelphia",
		"location_coordinates": [{
			"latitude": 39.9681378,
			"longitude": -75.2096571
		}],
		"attributes": {
			"username": "Tyron J.",
			"source_name": "Yelp",
			"review_id": "1DMgEJJhVLHGiLJcdtXx9w",
			"excerpt": "Best deals and service in town. Unbelievable combo packages at a great price. You can order your meat however way you like it and they will do it for you. I use to have to go to 9th st to get my meat\u2026",
			"source": 1220,
			"stars": 5,
			"business_name": "Sunshine Food Market 3",
			"review_url": "http://www.yelp.com/biz/sunshine-food-market-3-philadelphia?hrid=1DMgEJJhVLHGiLJcdtXx9w"
		},
		"url": "http://philly.everyblock.com/business-reviews/jan19-sunshine-food-market-3-reviewed-tyron-j-2217398/",
		"poster_name": "",
		"schema": "business-reviews",
		"reaction_score": 0,
		"reaction_count": 0,
		"comment_count": 0
	}, {
		"id": 2217555,
		"title": "Recovered Stolen Motor Vehicle",
		"embed": null,
		"pub_date": "2016-01-20T06:28:16.231Z",
		"item_date": "2016-01-17",
		"location_name": "600 Block N. 36th St.",
		"location_coordinates": [{
			"latitude": 39.9658875,
			"longitude": -75.19496528
		}],
		"attributes": {
			"sector": 145,
			"xy": "",
			"primary_type": 1689,
			"premise": 1687,
			"dc_key": "201616002651",
			"secondary_type": 1686,
			"dispatch_time": "08:27:00"
		},
		"url": "http://philly.everyblock.com/crime/jan17-recovered-stolen-motor-vehicle-2217555/",
		"poster_name": "",
		"schema": "crime",
		"reaction_score": 0,
		"reaction_count": 0,
		"comment_count": 0
	}, {
		"id": 2217556,
		"title": "Thefts",
		"embed": null,
		"pub_date": "2016-01-20T06:28:16.231Z",
		"item_date": "2016-01-17",
		"location_name": "3900 Block Fairmount Ave.",
		"location_coordinates": [{
			"latitude": 39.96541647,
			"longitude": -75.20010318
		}],
		"attributes": {
			"sector": 145,
			"xy": "",
			"primary_type": 1685,
			"premise": 1687,
			"dc_key": "201616002654",
			"secondary_type": 1686,
			"dispatch_time": "09:27:00"
		},
		"url": "http://philly.everyblock.com/crime/jan17-thefts-2217556/",
		"poster_name": "",
		"schema": "crime",
		"reaction_score": 0,
		"reaction_count": 0,
		"comment_count": 0
	}, {
		"id": 2217557,
		"title": "Recovered Stolen Motor Vehicle",
		"embed": null,
		"pub_date": "2016-01-20T06:28:16.231Z",
		"item_date": "2016-01-17",
		"location_name": "3900 Lancaster Av",
		"location_coordinates": [{
			"latitude": 39.96194704,
			"longitude": -75.20018841
		}],
		"attributes": {
			"sector": 145,
			"xy": "",
			"primary_type": 1689,
			"premise": 1687,
			"dc_key": "201616002664",
			"secondary_type": 1686,
			"dispatch_time": "10:57:00"
		},
		"url": "http://philly.everyblock.com/crime/jan17-recovered-stolen-motor-vehicle-2217557/",
		"poster_name": "",
		"schema": "crime",
		"reaction_score": 0,
		"reaction_count": 0,
		"comment_count": 0
	}, {
		"id": 2217285,
		"title": "Belmont Parent2Parent Chat & Chew at 4030 Bro...",
		"embed": {
			"provider_url": "http://www.facebook.com",
			"description": "Belmont Parent2Parent Chat & Chew at 4030 Brown on Jan 28th! More info below! #community #westphilly",
			"title": "Timeline Photos - Lancaster Avenue - West Philadelphia, PA | Facebook",
			"url": "https://scontent.xx.fbcdn.net/hphotos-xlf1/v/t1.0-9/12507619_10153331267073316_8830539040439403693_n.jpg?oh=87ea25930777bc14dc7008d510827fcb&oe=5705F633",
			"thumbnail_width": 682,
			"height": 373,
			"width": 682,
			"thumbnail_url": "https://scontent.xx.fbcdn.net/hphotos-xlf1/v/t1.0-9/12507619_10153331267073316_8830539040439403693_n.jpg?oh=87ea25930777bc14dc7008d510827fcb&oe=5705F633",
			"version": "1.0",
			"provider_name": "Facebook",
			"type": "photo",
			"thumbnail_height": 373
		},
		"pub_date": "2016-01-19T21:03:11Z",
		"item_date": "2016-01-19",
		"location_name": "4030 Brown",
		"location_coordinates": [{
			"latitude": 39.96727204732815,
			"longitude": -75.20436978064947
		}],
		"attributes": {
			"source": 2214,
			"source_name": "Lancaster Avenue - West Philadelphia, PA",
			"master_newsitem_id": null,
			"page_id": null,
			"source_id": 624,
			"excerpt": "",
			"has_multiple_locations": false
		},
		"url": "http://philly.everyblock.com/news-articles/jan19-belmont-parent2parent-chat-chew-4030-bro-2217285/",
		"poster_name": "",
		"schema": "news-articles",
		"reaction_score": 0,
		"reaction_count": 0,
		"comment_count": 0
	}, {
		"id": 2217191,
		"title": "Help build the first urban solar powered #Ear...",
		"embed": {
			"provider_url": "https://www.kickstarter.com/",
			"description": "Earthship Philly is raising funds for Philadelphia Earthship: Solar & Biofuels in an Urban Design on Kickstarter! Help build the first urban biofueled and solar powered Earthship in Philadelphia. This project seeks to educate and invigorate Philly!",
			"title": "Philadelphia Earthship: Solar & Biofuels in an Urban Design",
			"type": "rich",
			"thumbnail_width": 560,
			"height": 300,
			"width": 550,
			"html": "<iframe class=\"embedly-embed\" src=\"//cdn.embedly.com/widgets/media.html?src=https%3A%2F%2Fwww.kickstarter.com%2Fprojects%2Fearthship-philly%2Fearthship-philly-solar-and-biofuels-earthship%2Fwidget%2Fvideo.html&url=https%3A%2F%2Fwww.kickstarter.com%2Fprojects%2Fearthship-philly%2Fearthship-philly-solar-and-biofuels-earthship&image=https%3A%2F%2Fksr-ugc.imgix.net%2Fprojects%2F2214903%2Fphoto-original.jpg%3Fv%3D1448902540%26w%3D560%26h%3D420%26fit%3Dcrop%26auto%3Dformat%26q%3D92%26s%3D820fd931fe5ad8d56015e602c0da4201&p=1&key=6098edcd196e490785c6be5cc1384cf5&type=text%2Fhtml&schema=kickstarter\" width=\"550\" height=\"300\" scrolling=\"no\" frameborder=\"0\" allowfullscreen></iframe>",
			"author_name": "Earthship Philly",
			"version": "1.0",
			"provider_name": "Kickstarter",
			"thumbnail_url": "https://ksr-ugc.imgix.net/projects/2214903/photo-original.jpg?v=1448902540&w=560&h=420&fit=crop&auto=format&q=92&s=820fd931fe5ad8d56015e602c0da4201",
			"thumbnail_height": 420,
			"author_url": "https://www.kickstarter.com/profile/earthship-philly"
		},
		"pub_date": "2016-01-19T16:40:57Z",
		"item_date": "2016-01-19",
		"location_name": "41st & Lancaster",
		"location_coordinates": [{
			"latitude": 39.96509003424952,
			"longitude": -75.2054799432758
		}],
		"attributes": {
			"source": 2214,
			"source_name": "Lancaster Avenue - West Philadelphia, PA",
			"master_newsitem_id": null,
			"page_id": null,
			"source_id": 624,
			"excerpt": "",
			"has_multiple_locations": false
		},
		"url": "http://philly.everyblock.com/news-articles/jan19-help-build-first-urban-solar-powered-ear-2217191/",
		"poster_name": "",
		"schema": "news-articles",
		"reaction_score": 0,
		"reaction_count": 0,
		"comment_count": 0
	}]
}